Final_Project
…
## # A tsibble: 31 x 2 [1Y]
##     Year Renewable.internal.freshwater.resources..cubic.meters
##    <int>                                                 <dbl>
##  1  1989                                              0.000258
##  2  1990                                              0.000249
##  3  1991                                              0.000241
##  4  1992                                              0.000233
##  5  1993                                              0.000226
##  6  1994                                              0.000218
##  7  1995                                              0.000212
##  8  1996                                              0.000205
##  9  1997                                              0.000199
## 10  1998                                              0.000194
## #  21 more rows
…
## # A tsibble: 31 x 2 [1Y]
##     Year Cattle...00000866....Stocks...005111....animals
##    <int>                                           <int>
##  1  1989                                       144154096
##  2  1990                                       147102320
##  3  1991                                       152135504
##  4  1992                                       154229296
##  5  1993                                       155134080
##  6  1994                                       158243232
##  7  1995                                       161227936
##  8  1996                                       158288544
##  9  1997                                       161416160
## 10  1998                                       163154352
## #  21 more rows
…
## # A tsibble: 31 x 2 [1Y]
##     Year Annual.freshwater.withdrawals..total..billion.cubic.meters.
##    <int>                                                       <dbl>
##  1  1989                                                 39446667000
##  2  1990                                                 41650000000
##  3  1991                                                 43853333000
##  4  1992                                                 46056667000
##  5  1993                                                 48260000000
##  6  1994                                                 50463333000
##  7  1995                                                 52666668000
##  8  1996                                                 54830000000
##  9  1997                                                 55150000000
## 10  1998                                                 55470000000
## #  21 more rows

James reflects on the increasing freshwater withdrawals in Brazil since 1989 to 2019. In 1989 the water withdrawal was 39446667000 cubic meters and for 2019 it was 70430000000 cubic meters, meaning an annual percentage increase of 1.95 %.

Down below, the dataset that James creates with all the time series for his forecast report on the Renewable Internal Freshwater Resources of Brazil for the next 10 years.

0.2 Joining Variables

## # A tsibble: 31 x 4 [1Y]
##     Year Renewable.internal.fres Cattle...00000866... Annual.freshwater.wi
##    <int>                     <dbl>                  <int>                  <dbl>
##  1  1989                  0.000258              144154096            39446667000
##  2  1990                  0.000249              147102320            41650000000
##  3  1991                  0.000241              152135504            43853333000
##  4  1992                  0.000233              154229296            46056667000
##  5  1993                  0.000226              155134080            48260000000
##  6  1994                  0.000218              158243232            50463333000
##  7  1995                  0.000212              161227936            52666668000
##  8  1996                  0.000205              158288544            54830000000
##  9  1997                  0.000199              161416160            55150000000
## 10  1998                  0.000194              163154352            55470000000
## #  21 more rows
## #  abbreviated names: Renewable.internal.freshwater.resources..cubic.meters,
## #   Cattle...00000866....Stocks...005111....animals,
## #   Annual.freshwater.withdrawals..total..billion.cubic.meters.
…
## # A tibble: 1  3
##   .model                                                       lb_stat lb_pvalue
##   <chr>                                                          <dbl>     <dbl>
## 1 "ARIMA(Renewable.internal.freshwater.resources..cubic.meter    79.9  3.00e-11

## # A tsibble: 31 x 6 [1Y]
## # Key:       .model [1]
##    .model                  Year Renewable.internal.f .fitted   .resid   .innov
##    <chr>                  <int>                  <dbl>   <dbl>    <dbl>    <dbl>
##  1 "ARIMA(Renewable.inte  1989               0.000258 2.38e-4  2.06e-5  2.06e-5
##  2 "ARIMA(Renewable.inte  1990               0.000249 2.34e-4  1.57e-5  1.57e-5
##  3 "ARIMA(Renewable.inte  1991               0.000241 2.26e-4  1.45e-5  1.45e-5
##  4 "ARIMA(Renewable.inte  1992               0.000233 2.23e-4  9.66e-6  9.66e-6
##  5 "ARIMA(Renewable.inte  1993               0.000226 2.22e-4  3.57e-6  3.57e-6
##  6 "ARIMA(Renewable.inte  1994               0.000218 2.17e-4  1.02e-6  1.02e-6
##  7 "ARIMA(Renewable.inte  1995               0.000212 2.13e-4 -1.37e-6 -1.37e-6
##  8 "ARIMA(Renewable.inte  1996               0.000205 2.17e-4 -1.20e-5 -1.20e-5
##  9 "ARIMA(Renewable.inte  1997               0.000199 2.13e-4 -1.35e-5 -1.35e-5
## 10 "ARIMA(Renewable.inte  1998               0.000194 2.10e-4 -1.68e-5 -1.68e-5
## #  21 more rows
## #  abbreviated name: Renewable.internal.freshwater.resources..cubic.meters
…
## # A tibble: 1  3
##   .model                                                       lb_stat lb_pvalue
##   <chr>                                                          <dbl>     <dbl>
## 1 "ARIMA(Renewable.internal.freshwater.resources..cubic.meter    104.  8.88e-16

## # A tsibble: 31 x 6 [1Y]
## # Key:       .model [1]
##    .model                    Year Renewable.internal.f .fitted  .resid  .innov
##    <chr>                    <int>                  <dbl>   <dbl>   <dbl>   <dbl>
##  1 "ARIMA(Renewable.intern  1989               0.000258 1.11e-4 1.47e-4 1.47e-4
##  2 "ARIMA(Renewable.intern  1990               0.000249 1.17e-4 1.32e-4 1.32e-4
##  3 "ARIMA(Renewable.intern  1991               0.000241 1.24e-4 1.17e-4 1.17e-4
##  4 "ARIMA(Renewable.intern  1992               0.000233 1.30e-4 1.03e-4 1.03e-4
##  5 "ARIMA(Renewable.intern  1993               0.000226 1.36e-4 8.94e-5 8.94e-5
##  6 "ARIMA(Renewable.intern  1994               0.000218 1.42e-4 7.61e-5 7.61e-5
##  7 "ARIMA(Renewable.intern  1995               0.000212 1.49e-4 6.32e-5 6.32e-5
##  8 "ARIMA(Renewable.intern  1996               0.000205 1.55e-4 5.07e-5 5.07e-5
##  9 "ARIMA(Renewable.intern  1997               0.000199 1.56e-4 4.37e-5 4.37e-5
## 10 "ARIMA(Renewable.intern  1998               0.000194 1.56e-4 3.70e-5 3.70e-5
## #  21 more rows
## #  abbreviated name: Renewable.internal.freshwater.resources..cubic.meters
…
