Forecasting-Brazils-Freshwater-Resources-with-Predictive-Modeling
…
ttsibble_data

## # A tsibble: 31 x 2 [1Y]
##     Year Cattle...00000866....Stocks...005111....animals
##    <int>                                           <int>
##  1  1989                                       144154096
##  2  1990                                       147102320
##  3  1991                                       152135504
##  4  1992                                       154229296
##  5  1993                                       155134080
##  6  1994                                       158243232
##  7  1995                                       161227936
##  8  1996                                       158288544
##  9  1997                                       161416160
## 10  1998                                       163154352
## #  21 more rows
…
ttsibble_data

## # A tsibble: 31 x 2 [1Y]
##     Year Annual.freshwater.withdrawals..total..billion.cubic.meters.
##    <int>                                                       <dbl>
##  1  1989                                                 39446667000
##  2  1990                                                 41650000000
##  3  1991                                                 43853333000
##  4  1992                                                 46056667000
##  5  1993                                                 48260000000
##  6  1994                                                 50463333000
##  7  1995                                                 52666668000
##  8  1996                                                 54830000000
##  9  1997                                                 55150000000
## 10  1998                                                 55470000000
## #  21 more rows
…
Joining Variables

ultimate_joined_data <- left_join(renew_h2o_clean, filtered_cattle_heads, by = "Year")

#Creating the three datasets into a joined one
definitive_joined_data <- left_join(ultimate_joined_data, filtered_fresh_h2o, by = "Year")

#Making it a tsible object
ttsibble_data <- as_tsibble(definitive_joined_data, index = Year)
# ttsibble_data |> autoplot()
ttsibble_data

## # A tsibble: 31 x 4 [1Y]
##     Year Renewable.internal.fres Cattle...00000866... Annual.freshwater.wi
##    <int>                     <dbl>                  <int>                  <dbl>
##  1  1989                  0.000258              144154096            39446667000
##  2  1990                  0.000249              147102320            41650000000
##  3  1991                  0.000241              152135504            43853333000
##  4  1992                  0.000233              154229296            46056667000
##  5  1993                  0.000226              155134080            48260000000
##  6  1994                  0.000218              158243232            50463333000
##  7  1995                  0.000212              161227936            52666668000
##  8  1996                  0.000205              158288544            54830000000
##  9  1997                  0.000199              161416160            55150000000
## 10  1998                  0.000194              163154352            55470000000
## #  21 more rows
## #  abbreviated names: Renewable.internal.freshwater.resources..cubic.meters,
## #   Cattle...00000866....Stocks...005111....animals,
## #   Annual.freshwater.withdrawals..total..billion.cubic.meters.
…
